{
  "name": "Restaurant Seven",
  "description": "Administration theme for Open Restaurant.",
  "browserSyncProxy" : "http://192.168.111.111/",
  "bowerDir": "./bower_components",
  "sassIncludePaths": [
    "./bower_components/font-awesome/scss"
  ]
}
